%YAML 1.1
%TAG !u! tag:unity3d.com,2011:
--- !u!114 &11400000
MonoBehaviour:
  m_ObjectHideFlags: 0
  m_PrefabParentObject: {fileID: 0}
  m_PrefabInternal: {fileID: 0}
  m_GameObject: {fileID: 0}
  m_Enabled: 1
  m_EditorHideFlags: 0
  m_Script: {fileID: 11500000, guid: 7bcbb7697f22cd348aafc3b0e2b5b136, type: 3}
  m_Name: idProject
  m_EditorClassIdentifier: 
  appendToName: 0
  OutputPathName: sample
  AdbPath: /usr/local/bin/adb
  IProxyPath: /usr/local/bin/iproxy
  AutomaticallySign: 1
  SigningTeamId: 59ESG8ELF5
  BuildNumber: 0
  MyTests:
  - _selected: 0
    _testName: D:/altUnityTesterPublic/altunitytester/Library/ScriptAssemblies/Assembly-CSharp-Editor.dll
    _status: 0
    _isSuite: 1
    _parentName: 
    _testCaseCount: 48
    _foldOut: 0
    _testResultMessage: 
  - _selected: 0
    _testName: TestForScene1TestSample
    _status: 0
    _isSuite: 1
    _parentName: D:/altUnityTesterPublic/altunitytester/Library/ScriptAssemblies/Assembly-CSharp-Editor.dll
    _testCaseCount: 42
    _foldOut: 0
    _testResultMessage: 
  - _selected: 0
    _testName: TestForScene1TestSample.TestButtonClickWithSwipe
    _status: 0
    _isSuite: 0
    _parentName: TestForScene1TestSample
    _testCaseCount: 1
    _foldOut: 0
    _testResultMessage: 
  - _selected: 0
    _testName: TestForScene1TestSample.TestCallMethodWithIncorrectNumberOfParameters
    _status: 0
    _isSuite: 0
    _parentName: TestForScene1TestSample
    _testCaseCount: 1
    _foldOut: 0
    _testResultMessage: 
  - _selected: 0
    _testName: TestForScene1TestSample.TestCallMethodWithIncorrectTypeOfParameters
    _status: 0
    _isSuite: 0
    _parentName: TestForScene1TestSample
    _testCaseCount: 1
    _foldOut: 0
    _testResultMessage: 
  - _selected: 0
    _testName: TestForScene1TestSample.TestCallMethodWithManyParameters
    _status: 0
    _isSuite: 0
    _parentName: TestForScene1TestSample
    _testCaseCount: 1
    _foldOut: 0
    _testResultMessage: 
  - _selected: 0
    _testName: TestForScene1TestSample.TestCallMethodWithMultipleDefinitions
    _status: 0
    _isSuite: 0
    _parentName: TestForScene1TestSample
    _testCaseCount: 1
    _foldOut: 0
    _testResultMessage: 
  - _selected: 0
    _testName: TestForScene1TestSample.TestCallMethodWithNoParameters
    _status: 0
    _isSuite: 0
    _parentName: TestForScene1TestSample
    _testCaseCount: 1
    _foldOut: 0
    _testResultMessage: 
  - _selected: 0
    _testName: TestForScene1TestSample.TestCallMethodWithParameters
    _status: 0
    _isSuite: 0
    _parentName: TestForScene1TestSample
    _testCaseCount: 1
    _foldOut: 0
    _testResultMessage: 
  - _selected: 0
    _testName: TestForScene1TestSample.TestCallStaticMethod
    _status: 0
    _isSuite: 0
    _parentName: TestForScene1TestSample
    _testCaseCount: 1
    _foldOut: 0
    _testResultMessage: 
  - _selected: 0
    _testName: TestForScene1TestSample.TestClickElement
    _status: 0
    _isSuite: 0
    _parentName: TestForScene1TestSample
    _testCaseCount: 1
    _foldOut: 0
    _testResultMessage: 
  - _selected: 0
    _testName: TestForScene1TestSample.TestClickOnNothing
    _status: 0
    _isSuite: 0
    _parentName: TestForScene1TestSample
    _testCaseCount: 1
    _foldOut: 0
    _testResultMessage: 
  - _selected: 0
    _testName: TestForScene1TestSample.TestClickScreen
    _status: 0
    _isSuite: 0
    _parentName: TestForScene1TestSample
    _testCaseCount: 1
    _foldOut: 0
    _testResultMessage: 
  - _selected: 0
    _testName: TestForScene1TestSample.TestDeleteKey
    _status: 0
    _isSuite: 0
    _parentName: TestForScene1TestSample
    _testCaseCount: 1
    _foldOut: 0
    _testResultMessage: 
  - _selected: 0
    _testName: TestForScene1TestSample.TestDifferentCamera
    _status: 0
    _isSuite: 0
    _parentName: TestForScene1TestSample
    _testCaseCount: 1
    _foldOut: 0
    _testResultMessage: 
  - _selected: 0
    _testName: TestForScene1TestSample.TestFindElement
    _status: 0
    _isSuite: 0
    _parentName: TestForScene1TestSample
    _testCaseCount: 1
    _foldOut: 0
    _testResultMessage: 
  - _selected: 0
    _testName: TestForScene1TestSample.TestFindElementByComponent
    _status: 0
    _isSuite: 0
    _parentName: TestForScene1TestSample
    _testCaseCount: 1
    _foldOut: 0
    _testResultMessage: 
  - _selected: 0
    _testName: TestForScene1TestSample.TestFindElementByComponent2
    _status: 0
    _isSuite: 0
    _parentName: TestForScene1TestSample
    _testCaseCount: 1
    _foldOut: 0
    _testResultMessage: 
  - _selected: 0
    _testName: TestForScene1TestSample.TestFindElements
    _status: 0
    _isSuite: 0
    _parentName: TestForScene1TestSample
    _testCaseCount: 1
    _foldOut: 0
    _testResultMessage: 
  - _selected: 0
    _testName: TestForScene1TestSample.TestFindElementsWhereNameContains
    _status: 0
    _isSuite: 0
    _parentName: TestForScene1TestSample
    _testCaseCount: 1
    _foldOut: 0
    _testResultMessage: 
  - _selected: 0
    _testName: TestForScene1TestSample.TestFindElementWhereNameContains
    _status: 0
    _isSuite: 0
    _parentName: TestForScene1TestSample
    _testCaseCount: 1
    _foldOut: 0
    _testResultMessage: 
  - _selected: 0
    _testName: TestForScene1TestSample.TestFindElemetsByComponent
    _status: 0
    _isSuite: 0
    _parentName: TestForScene1TestSample
    _testCaseCount: 1
    _foldOut: 0
    _testResultMessage: 
  - _selected: 0
    _testName: TestForScene1TestSample.TestFindNonExistentObject
    _status: 0
    _isSuite: 0
    _parentName: TestForScene1TestSample
    _testCaseCount: 1
    _foldOut: 0
    _testResultMessage: 
  - _selected: 0
    _testName: TestForScene1TestSample.TestFindNonExistentObjectByName
    _status: 0
    _isSuite: 0
    _parentName: TestForScene1TestSample
    _testCaseCount: 1
    _foldOut: 0
    _testResultMessage: 
  - _selected: 0
    _testName: TestForScene1TestSample.TestGetAllElements
    _status: 0
    _isSuite: 0
    _parentName: TestForScene1TestSample
    _testCaseCount: 1
    _foldOut: 0
    _testResultMessage: 
  - _selected: 0
    _testName: TestForScene1TestSample.TestGetComponentProperty
    _status: 0
    _isSuite: 0
    _parentName: TestForScene1TestSample
    _testCaseCount: 1
    _foldOut: 0
    _testResultMessage: 
  - _selected: 0
    _testName: TestForScene1TestSample.TestGetComponentPropertyArray
    _status: 0
    _isSuite: 0
    _parentName: TestForScene1TestSample
    _testCaseCount: 1
    _foldOut: 0
    _testResultMessage: 
  - _selected: 0
    _testName: TestForScene1TestSample.TestGetComponentPropertyUnityEngine
    _status: 0
    _isSuite: 0
    _parentName: TestForScene1TestSample
    _testCaseCount: 1
    _foldOut: 0
    _testResultMessage: 
  - _selected: 0
    _testName: TestForScene1TestSample.TestGetCurrentScene
    _status: 0
    _isSuite: 0
    _parentName: TestForScene1TestSample
    _testCaseCount: 1
    _foldOut: 0
    _testResultMessage: 
  - _selected: 0
    _testName: TestForScene1TestSample.TestGetNonExistingComponentProperty
    _status: 0
    _isSuite: 0
    _parentName: TestForScene1TestSample
    _testCaseCount: 1
    _foldOut: 0
    _testResultMessage: 
  - _selected: 0
    _testName: TestForScene1TestSample.TestSetComponentProperty
    _status: 0
    _isSuite: 0
    _parentName: TestForScene1TestSample
    _testCaseCount: 1
    _foldOut: 0
    _testResultMessage: 
  - _selected: 0
    _testName: TestForScene1TestSample.TestSetKeyFloat
    _status: 0
    _isSuite: 0
    _parentName: TestForScene1TestSample
    _testCaseCount: 1
    _foldOut: 0
    _testResultMessage: 
  - _selected: 0
    _testName: TestForScene1TestSample.TestSetKeyInt
    _status: 0
    _isSuite: 0
    _parentName: TestForScene1TestSample
    _testCaseCount: 1
    _foldOut: 0
    _testResultMessage: 
  - _selected: 0
    _testName: TestForScene1TestSample.TestSetKeyString
    _status: 0
    _isSuite: 0
    _parentName: TestForScene1TestSample
    _testCaseCount: 1
    _foldOut: 0
    _testResultMessage: 
  - _selected: 0
    _testName: TestForScene1TestSample.TestSetNonExistingComponentProperty
    _status: 0
    _isSuite: 0
    _parentName: TestForScene1TestSample
    _testCaseCount: 1
    _foldOut: 0
    _testResultMessage: 
  - _selected: 0
    _testName: TestForScene1TestSample.TestWaitForCurrentSceneToBe
    _status: 0
    _isSuite: 0
    _parentName: TestForScene1TestSample
    _testCaseCount: 1
    _foldOut: 0
    _testResultMessage: 
  - _selected: 0
    _testName: TestForScene1TestSample.TestWaitForCurrrentSceneToBeANonExistingScene
    _status: 0
    _isSuite: 0
    _parentName: TestForScene1TestSample
    _testCaseCount: 1
    _foldOut: 0
    _testResultMessage: 
  - _selected: 0
    _testName: TestForScene1TestSample.TestWaitForElementWithText
    _status: 0
    _isSuite: 0
    _parentName: TestForScene1TestSample
    _testCaseCount: 1
    _foldOut: 0
    _testResultMessage: 
  - _selected: 0
    _testName: TestForScene1TestSample.TestWaitForExistingElement
    _status: 0
    _isSuite: 0
    _parentName: TestForScene1TestSample
    _testCaseCount: 1
    _foldOut: 0
    _testResultMessage: 
  - _selected: 0
    _testName: TestForScene1TestSample.TestWaitForExistingElementWhereNameContains
    _status: 0
    _isSuite: 0
    _parentName: TestForScene1TestSample
    _testCaseCount: 1
    _foldOut: 0
    _testResultMessage: 
  - _selected: 0
    _testName: TestForScene1TestSample.TestWaitForNonExistingElementWhereNameContains
    _status: 0
    _isSuite: 0
    _parentName: TestForScene1TestSample
    _testCaseCount: 1
    _foldOut: 0
    _testResultMessage: 
  - _selected: 0
    _testName: TestForScene1TestSample.TestWaitForNonExistingObject
    _status: 0
    _isSuite: 0
    _parentName: TestForScene1TestSample
    _testCaseCount: 1
    _foldOut: 0
    _testResultMessage: 
  - _selected: 0
    _testName: TestForScene1TestSample.TestWaitForObjectToNotExistFail
    _status: 0
    _isSuite: 0
    _parentName: TestForScene1TestSample
    _testCaseCount: 1
    _foldOut: 0
    _testResultMessage: 
  - _selected: 0
    _testName: TestForScene1TestSample.TestWaitForObjectWithTextWrongText
    _status: 0
    _isSuite: 0
    _parentName: TestForScene1TestSample
    _testCaseCount: 1
    _foldOut: 0
    _testResultMessage: 
  - _selected: 0
    _testName: TestForScene2DraggablePanel
    _status: 0
    _isSuite: 1
    _parentName: D:/altUnityTesterPublic/altunitytester/Library/ScriptAssemblies/Assembly-CSharp-Editor.dll
    _testCaseCount: 3
    _foldOut: 0
    _testResultMessage: 
  - _selected: 0
    _testName: TestForScene2DraggablePanel.ClosePanel
    _status: 0
    _isSuite: 0
    _parentName: TestForScene2DraggablePanel
    _testCaseCount: 1
    _foldOut: 0
    _testResultMessage: 
  - _selected: 0
    _testName: TestForScene2DraggablePanel.MovePanel
    _status: 0
    _isSuite: 0
    _parentName: TestForScene2DraggablePanel
    _testCaseCount: 1
    _foldOut: 0
    _testResultMessage: 
  - _selected: 0
    _testName: TestForScene2DraggablePanel.ResizePanel
    _status: 0
    _isSuite: 0
    _parentName: TestForScene2DraggablePanel
    _testCaseCount: 1
    _foldOut: 0
    _testResultMessage: 
  - _selected: 0
    _testName: TestForScene3DragAndDrop
    _status: 0
    _isSuite: 1
    _parentName: D:/altUnityTesterPublic/altunitytester/Library/ScriptAssemblies/Assembly-CSharp-Editor.dll
    _testCaseCount: 3
    _foldOut: 0
    _testResultMessage: 
  - _selected: 0
    _testName: TestForScene3DragAndDrop.MultipleDragAndDrop
    _status: 0
    _isSuite: 0
    _parentName: TestForScene3DragAndDrop
    _testCaseCount: 1
    _foldOut: 0
    _testResultMessage: 
  - _selected: 0
    _testName: TestForScene3DragAndDrop.MultipleDragAndDropWait
    _status: 0
    _isSuite: 0
    _parentName: TestForScene3DragAndDrop
    _testCaseCount: 1
    _foldOut: 0
    _testResultMessage: 
  - _selected: 0
    _testName: TestForScene3DragAndDrop.TestPointerEnterAndExit
    _status: 0
    _isSuite: 0
    _parentName: TestForScene3DragAndDrop
    _testCaseCount: 1
    _foldOut: 0
    _testResultMessage: 
  Scenes:
  - _toBeBuilt: 1
    _path: Assets/AltUnityTester-BindingsAndExamples(can_be_deleted)/Scenes/Scene
      1 AltUnityDriverTestScene.unity
    _buildIndex: 0
  - _toBeBuilt: 1
    _path: Assets/AltUnityTester-BindingsAndExamples(can_be_deleted)/Scenes/Scene
      2 Draggable Panel.unity
    _buildIndex: 1
  - _toBeBuilt: 1
    _path: Assets/AltUnityTester-BindingsAndExamples(can_be_deleted)/Scenes/Scene
      3 Drag And Drop.unity
    _buildIndex: 2
  TestAndroid: 1
